tidysdm overview • tidysdm
…
Preparing your data

We start by reading in a set of presences for a species of lizard
that inhabits the Iberian peninsula, Lacerta schreiberi.

data(lacerta)
lacerta
#> # A tibble: 1,297 × 3
#>           ID latitude longitude
#>        <dbl>    <dbl>     <dbl>
#>  1 858029749     42.6     -7.09
#>  2 858029738     42.6     -7.09
#>  3 614631090     41.4     -7.90
#>  4 614631085     41.3     -7.81
#>  5 614631083     41.3     -7.81
#>  6 614631080     41.4     -7.83
#>  7 614631072     41.4     -7.81
#>  8 614559731     40.3     -7.70
#>  9 614559728     40.4     -7.70
#> 10 614559657     40.4     -7.56
#> # ℹ 1,287 more rows
…
