Application with palaeodata • tidysdm
…
Preparing your data

We start by loading a set of radiocarbon dates (calibrated) for
horses, covering from 22k years ago until 8k years ago.

data(horses)
horses
#> # A tibble: 788 × 3
#>    latitude longitude time_bp
#>       <dbl>     <dbl>   <int>
#>  1     43.2     -2.04  -14000
#>  2     43.2     -2.04  -14000
#>  3     43.2     -2.04  -14000
#>  4     43.2     -2.04  -14000
#>  5     43.2     -2.04  -16000
#>  6     43.3     -1.89  -16000
#>  7     43.2     -2.2   -14000
#>  8     43.2     -2.2   -19000
#>  9     43.2     -2.2   -20000
#> 10     43.2     -2.2   -21000
#> # ℹ 778 more rows
…
